<?xml version="1.0" encoding="utf-8"?>
<!-- Generator: Adobe Illustrator 24.0.2, SVG Export Plug-In . SVG Version: 6.00 Build 0)  -->
<svg version="1.1" id="Ebene_1" xmlns="http://www.w3.org/2000/svg" xmlns:xlink="http://www.w3.org/1999/xlink" x="0px" y="0px"
	 viewBox="0 0 800 600" style="enable-background:new 0 0 800 600;" xml:space="preserve">
<style type="text/css">
	.st0{fill-rule:evenodd;clip-rule:evenodd;fill:#277A4E;}
	.st1{fill-rule:evenodd;clip-rule:evenodd;fill:#C01C24;}
	.st2{fill:#7C7B7B;}
</style>
<g>
	<path class="st0" d="M51.7,158.4c12.9-2.7,28.1,1.8,42.7,1.1c13.7,30.1,24.4,63.2,26.3,105.1c7.1-17.7,4.4-36.9,8.8-54.7
		c4.4-17.8,16.5-33.5,19.7-50.3c8.3,1.6,18,1.7,26.3,3.3c16.9,27.3,23.7,64.6,27.4,105c3.4-41.9,14.1-76.3,27.4-108.3
		c14.6,0,26.8-2.3,41.6-2.2c-12.9,60.4-26.7,119.9-39.4,180.6c-17.1,0-34.3,0-51.4,0c-7.4-35.3-15.1-70.3-19.7-108.3
		c-6.8,34.4-10.1,72.3-15.3,108.3c-13.9-1.1-25.3-4.6-38.3-6.6C89,273.6,71.1,215.2,51.7,158.4z"/>
	<path class="st0" d="M337.3,158.4c38.9-5.5,64.2,12,76.6,37.2c24.5,49.8,6.3,134.4-50.3,142.3c-62.7,8.7-94.2-43.6-88.6-107.2
		C278.2,193.3,302.2,163.3,337.3,158.4z M323,213.1c-8.4,27,8,78.7,23,82.1c9.2,2.1,21.7-3,26.3-8.8c19.6-25,3.1-102.4-25.2-97.4
		C338.5,190.6,326.2,203.1,323,213.1z"/>
	<path class="st0" d="M491.6,157.3c0,21.2,0,42.3,0,63.5c6.2,2.5,17.1,0.4,25.2,1.1c2.5-19.4,0.4-43.4,1.1-64.6
		c14.3,1.3,28,3.4,41.6,5.5c4.2,57.8,7.1,116.9,10.9,175.1c-17.5,0-35,0-52.5,0c0-23.7,0-47.4,0-71.1c-6.6-2.5-17.9-0.4-26.3-1.1
		c0,24.1,0,48.1,0,72.2c-14.9-0.1-26.7-3.2-41.6-3.3c-2.9-59.8-8-117.5-10.9-177.3C456.5,157.3,474.1,157.3,491.6,157.3z"/>
	<path class="st0" d="M637.1,157.3c11.1,14.8,15.7,33.8,23,51.4c7.3,17.5,15.6,35,20.8,53.6c2.2-20.4-7-42.4-4.4-63.5
		c1.9-15.2,12.5-27,15.3-39.4c12.7-0.1,23.1-2.4,36.1-2.2c0,60.2,0,120.4,0,180.6c-17.1,0-34.3,0-51.4,0
		c-13.9-32.1-28.2-63.7-40.5-97.4c2.1,27.1,4.5,63.3,3.3,97.4c-16.8,0-33.6,0-50.3,0c2.1-59.9,6.1-118,8.8-177.3
		C611.9,160.6,623.6,158,637.1,157.3z"/>
	<path class="st0" d="M204.9,346.6c-0.1,27.6-11.1,43.4-20.8,64.6c-11.5,25-21.6,44.6-33.9,66.8c15.3-1.3,32.8-9.4,48.1-14.2
		c2.4,16.6,1,38.9,0,55.8c-43,0-86.1,0-129.1,0c19.7-45.2,40.2-89.7,64.6-130.2c-19,4.7-35.1,12.4-53.6,17.5
		c-0.6-21,0.7-40.1,1.1-60.2C122.4,346.6,163.6,346.6,204.9,346.6z"/>
	<path class="st0" d="M520,346.6c31.4,0,62.7,0,94.1,0c0,13.9,0,27.7,0,41.6c-14.9-3-29.4-6.4-44.9-8.8c-3.5,11.1-2.8,26.4-5.5,38.3
		c13.7,3.5,27.5,6.8,42.7,8.8c0,9.5,2.2,16.8,3.3,25.2c-12.8,0-25.5,0-38.3,0c-3.9,9.6-4.3,22.7-7.7,32.8
		c17.5-1.1,33.1-4.2,50.3-5.5c0,13.5,0,27,0,40.5c-27-0.3-53.9-0.8-79.9-2.2c-3.6-28.9-5.6-56.1,3.3-79.9
		c30.8-13.2,24.1-68.1-14.2-67.8C520.9,363.2,520.9,354.4,520,346.6z"/>
	<path class="st1" d="M515.6,368.5c-25.9,2.9-37.5,20.1-37.2,49.2c-54.2-4.4-117.4-2.4-169.6,2.2c4.3-27.4-3.7-49.6-26.3-53.6
		C340.7,341.1,459.3,341.3,515.6,368.5z"/>
	<path class="st0" d="M620.7,348.8c-0.2-0.9,0.4-1,1.1-1.1c42.4-0.4,90.7-4.1,111.6,19.7c8.2,9.4,15.8,26.5,12,44.9
		c-3.8,18.6-24.7,25.8-41.6,33.9c11.8,22.1,29,38.8,41.6,60.2c-15.1,5-30.6,9.6-46,14.2c-8.5-24-19.4-45.5-27.4-70
		c-2.6,21.2-0.4,47.1-1.1,70c-13-1.6-27.8-1.4-40.5-3.3C627.8,460.5,624.8,404.1,620.7,348.8z M672.1,383.8
		c-1.8,11.4-1.8,30.2,0,41.6C702.3,429.8,704.4,378.6,672.1,383.8z"/>
	<path class="st0" d="M265,348.8c0.6,8.2-1.9,13.4-1.1,21.9c-22.5,3.1-34.9,29-25.2,50.3c4.7,10.4,13,13.3,19.7,20.8
		c4.4,22.8,0.3,47.9,1.1,73.3c-18.1,0.9-33.2,4.8-51.4,5.5c0.7-56.9-1.5-116.7,1.1-171.8C227.8,348.8,246.4,348.8,265,348.8z"/>
	<path class="st1" d="M510.2,500.9c-6.2,0-12.4,0-18.6,0c-2.5,2.9-0.4,10.6-1.1,15.3c-4.7,0-9.5,0-14.2,0c0.5-6-2-9-1.1-15.3
		c-55.9-0.1-111.6,0-165.2,2.2c-2.5,2.2-0.4,9.1-1.1,13.1c-4.2,0.9-8.8,1.4-14.2,1.1c-2.2-3-0.7-9.6-1.1-14.2c-6.2,0-12.4,0-18.6,0
		c-2.4-23.5-5.5-46.2-8.8-68.9c-29.5-2.9-32.1-53.8-2.2-59.1c19.1-3.4,36.5,8,39.4,21.9c6.1,29.7-17.8,60.2-18.6,87.5
		c70.1,3.9,150.4,2.4,222.1,1.1c0.2-29-17.8-45.2-20.8-70c-2-16.7,2.7-31.4,14.2-38.3c37.3-22.3,73,39.8,28.5,51.4
		C523,453.2,515.3,475.8,510.2,500.9z M522.2,422.1c13.5-1,14.6-25.1,5.5-33.9C494.9,378,499.6,423.8,522.2,422.1z M276,423.2
		c13.4-4,10.8-41.3-12-33.9C243.6,395.8,258.4,428.5,276,423.2z"/>
	<path class="st1" d="M516.7,398c6.6-2.3,14.4-1,15.3,5.5c1.4,10.4-21.5,15.1-23,4.4C508.4,403.4,509.9,400.4,516.7,398z"/>
	<path class="st1" d="M260.7,413.4c0.2-1.3-0.2-1.9-1.1-2.2c-2-17,22.3-15.6,23-5.5C283.1,413.7,267.9,417.8,260.7,413.4z"/>
	<path class="st1" d="M481.7,426.5c3.7,17.5,10.9,31.4,14.2,49.2c-64.9-1.9-135.2-1.5-200.3,0c3.8-18.5,8.8-35.7,13.1-53.6
		C362.9,427.9,424.9,429.6,481.7,426.5z"/>
	<g>
		<path class="st2" d="M272.5,81.5c-0.1-0.7-0.1-1.2,0-1.6c0.1-0.4,0.3-0.7,0.6-0.9c0.3-0.2,0.6-0.3,0.9-0.4
			c0.3-0.1,0.6-0.1,0.9-0.1c1,0,1.7,0.5,2.1,1.4c0.4,0.9,0.5,1.9,0.3,3c0.5,3.2,0.9,6.2,1.4,8.9c0.4,2.8,0.8,5.5,1.2,8.3
			c0.4,2.7,0.8,5.5,1.3,8.3c0.4,2.8,0.9,5.8,1.4,8.9c0.4-1.2,0.8-2.5,1.3-4c0.5-1.5,1-3.1,1.5-4.7c0.5-1.6,1.1-3.2,1.6-4.8
			c0.5-1.6,1-3,1.5-4.4c0.4-1.3,0.8-2.5,1.1-3.4c0.3-0.9,0.5-1.5,0.7-1.8c0.5-1.5,1.1-2.5,1.6-3.1c0.6-0.5,1.1-0.8,1.7-0.8
			c0.5,0,1,0.1,1.4,0.4c0.4,0.3,0.7,0.6,1,0.9c0.1,0,0.1,0.1,0.2,0.2c0.1,0.1,0.1,0.1,0.2,0.2c0.1,0.1,0.1,0.1,0.2,0.1
			c0.1,0.2,0.3,0.7,0.6,1.6c0.3,0.8,0.6,1.8,1,3c0.4,1.2,0.9,2.6,1.4,4.1c0.5,1.5,1,3,1.6,4.6c0.6,1.9,1.2,3.6,1.7,5.2
			c0.5,1.6,1,3,1.4,4.2c0.4,1.2,0.7,2.2,1,2.9c0.3,0.7,0.4,1.2,0.5,1.3c0.9-6.5,1.8-12.9,2.7-19.3c0.9-6.4,1.9-12.8,2.8-19.3
			c0.2-0.7,0.6-1.2,1.1-1.4c0.5-0.2,1.1-0.2,1.6,0.1c0.5,0.2,0.9,0.7,1.3,1.4c0.3,0.7,0.4,1.7,0.2,2.8c-0.8,3.9-1.5,7.9-2.1,11.9
			c-0.7,4-1.3,8-1.8,11.8c-0.5,3.8-1,7.5-1.4,11c-0.4,3.5-0.7,6.7-0.9,9.5c-0.8,1.1-1.6,1.6-2.2,1.6c-0.6,0-1.1-0.2-1.4-0.7
			c-0.4-0.5-0.7-0.9-0.9-1.5l-10.5-29.3c-1.7,4.8-3.4,9.7-5.2,14.6c-1.7,4.9-3.4,9.7-5.2,14.6c-0.3,0.5-0.7,1-1.1,1.3
			c-0.4,0.3-0.8,0.5-1.1,0.5c-0.5,0-0.8-0.2-1.1-0.6c-0.3-0.4-0.5-1.1-0.6-2c-1.1-7.4-2.3-14.8-3.5-22.3
			C274.9,96.3,273.7,88.9,272.5,81.5z"/>
		<path class="st2" d="M317.3,105.7l0.4-1.6c0.5-1.8,1.2-3.5,2.1-5c0.9-1.5,1.8-2.8,2.9-3.8c1.1-1.1,2.1-1.9,3.3-2.5
			c1.1-0.6,2.3-0.9,3.4-0.9c1,0,2,0.3,3,0.8c0.9,0.5,1.8,1.4,2.5,2.6c0.7,1.2,1.3,2.7,1.7,4.5c0.4,1.8,0.7,4,0.7,6.6l-16.6,2.3
			c-0.1,0.5-0.1,1-0.1,1.5c0,0.5,0,1,0,1.5c0,1.7,0.2,3.2,0.7,4.6c0.5,1.4,1,2.6,1.8,3.6c0.7,1,1.6,1.8,2.6,2.4c1,0.6,2,0.9,3.1,0.9
			c1.2,0,2.4-0.4,3.6-1.3c1.2-0.9,2.3-2.2,3.4-4.1c0.1-0.7,0.4-1.1,0.8-1.4c0.4-0.2,0.8-0.3,1.2-0.2c0.4,0.1,0.8,0.4,1.1,0.9
			c0.3,0.5,0.5,1.1,0.5,1.9c0,0.4-0.1,0.9-0.2,1.4c-0.2,0.5-0.5,1-0.9,1.6c-1.7,2.2-3.4,3.8-5,4.7c-1.6,0.9-3.2,1.4-4.7,1.4
			c-1.7,0-3.2-0.5-4.7-1.5c-1.4-1-2.7-2.3-3.7-3.9c-1-1.6-1.8-3.4-2.4-5.3c-0.6-1.9-0.9-3.8-0.9-5.6c0-1.1,0-2.1,0.1-3.1l0.2-1.7
			L317.3,105.7z M333.4,102.1c0-0.2,0-0.4,0-0.7c0-1.5-0.4-2.6-1.1-3.3c-0.7-0.7-1.6-1.1-2.7-1.1c-1.4,0-2.9,0.6-4.3,1.7
			c-1.5,1.1-2.6,2.9-3.5,5.3L333.4,102.1z"/>
		<path class="st2" d="M348.5,128.3c-1.1,0.1-1.9,0.1-2.6,0.2c-0.7,0-1.3,0.1-1.7,0.1c-0.6,0-1,0-1.4-0.1c-0.3-0.1-0.6-0.2-0.8-0.3
			c-0.2-0.2-0.3-0.3-0.5-0.6c-0.1-0.2-0.2-0.5-0.3-0.9l-0.1-0.2c0-0.1-0.1-0.2-0.1-0.2c0-0.1,0-0.2,0-0.2c0-1.6,0-3.1,0-4.5
			c0-1.4,0-2.7,0-3.9c0-1.6,0-3.2,0-4.6c0-1.4,0-3,0-4.5c-0.1-2-0.1-4.1-0.1-6.5c0-2.4,0-5.2,0-8.4v-4.4c-0.2-0.5-0.2-1-0.2-1.4
			c0.1-0.4,0.2-0.8,0.4-1.1c0.2-0.3,0.4-0.5,0.7-0.7c0.3-0.2,0.6-0.3,0.9-0.3c0.5,0,1,0.2,1.3,0.7c0.4,0.5,0.5,1.2,0.5,2.2
			c0,6,0.1,11.8,0.1,17.5c0,5.7,0.1,11.6,0.1,17.6h3.5c0.4-0.2,0.8-0.2,1.1-0.1c0.3,0.1,0.6,0.2,0.8,0.5c0.2,0.2,0.4,0.5,0.5,0.9
			c0.1,0.4,0.2,0.7,0.2,1.1c0,0.7-0.2,1.3-0.6,1.8C349.9,128.3,349.3,128.5,348.5,128.3z"/>
		<path class="st2" d="M351.6,114.5c-0.1-3.3,0.2-6.1,0.9-8.6c0.7-2.5,1.7-4.6,2.9-6.3c1.2-1.7,2.7-3,4.3-3.9
			c1.6-0.9,3.3-1.3,4.9-1.3c1.7,0,3.4,0.5,5,1.4c1.7,0.9,3.1,2.3,4.4,4.3v-0.1c0.3,0.4,0.4,1,0.4,1.6c0,0.7-0.2,1.2-0.5,1.8
			c-0.3,0.5-0.7,0.9-1.1,1.1c-0.5,0.2-1,0-1.5-0.5c-1.1-1.4-2.3-2.5-3.5-3.2c-1.2-0.7-2.4-1-3.5-1c-1.2,0-2.3,0.3-3.3,1
			c-1,0.7-2,1.6-2.7,2.8c-0.8,1.2-1.4,2.7-1.9,4.4c-0.5,1.7-0.7,3.7-0.6,5.9c0,1.6,0.2,3.1,0.7,4.3c0.4,1.2,1,2.3,1.7,3.1
			c0.7,0.8,1.5,1.4,2.4,1.8c0.9,0.4,1.9,0.6,2.9,0.6c1.4,0,2.8-0.4,4.2-1.2c1.4-0.8,2.6-2.1,3.7-3.8c0.6-0.5,1.1-0.7,1.5-0.6
			c0.5,0,0.8,0.3,1.1,0.7c0.3,0.4,0.5,0.9,0.6,1.6c0.1,0.7,0,1.4-0.1,2.2c-1.8,2.1-3.6,3.7-5.5,4.6c-1.9,1-3.7,1.4-5.5,1.4
			c-1.6,0-3-0.3-4.5-1c-1.4-0.7-2.7-1.6-3.7-2.9c-1.1-1.2-1.9-2.7-2.6-4.4C352.1,118.5,351.7,116.6,351.6,114.5z"/>
		<path class="st2" d="M377.5,115.4c-0.1-0.4-0.1-0.9-0.1-1.3c0-0.5,0-1,0-1.5c0-1.4,0.1-2.8,0.3-4.4c0.2-1.6,0.6-3.1,1-4.7
			c0.5-1.6,1-3.1,1.6-4.5c0.6-1.4,1.4-2.7,2.2-3.8c0.8-1.1,1.7-2,2.7-2.7c1-0.7,2.1-1,3.2-1c1,0.1,1.9,0.5,2.9,1.2
			c0.9,0.7,1.8,1.6,2.5,2.8c0.8,1.1,1.4,2.4,2.1,3.8c0.6,1.4,1.1,2.9,1.5,4.5c0.4,1.6,0.7,3.1,1,4.7c0.2,1.6,0.3,3,0.3,4.4
			c0,2.3-0.3,4.5-1,6.4c-0.7,1.9-1.6,3.5-2.7,4.9c-1.1,1.3-2.4,2.4-3.8,3.1c-1.4,0.7-2.8,1.1-4.2,1.1c-1.1,0-2.2-0.2-3.3-0.7
			c-1.1-0.5-2-1.3-2.9-2.3c-0.9-1-1.6-2.4-2.2-4c-0.6-1.6-1-3.6-1.1-5.9V115.4z M394.5,112.1c0-1.4-0.1-2.8-0.3-4.5
			c-0.2-1.6-0.5-3.1-1-4.6c-0.5-1.5-1.1-2.8-1.8-3.9c-0.7-1.1-1.6-1.9-2.6-2.4c-1.2,0.1-2.3,0.6-3.2,1.6c-0.9,0.9-1.7,2.1-2.3,3.6
			c-0.6,1.5-1.1,3.1-1.4,4.9c-0.3,1.8-0.5,3.6-0.5,5.4c0,1.5,0.1,2.9,0.3,4.3c0.2,1.4,0.6,2.6,1,3.6c0.5,1,1.1,1.8,1.8,2.4
			c0.7,0.6,1.6,0.8,2.5,0.8c1.1,0,2.1-0.3,3-1c0.9-0.7,1.7-1.6,2.3-2.6c0.6-1.1,1.1-2.3,1.5-3.6
			C394.3,114.7,394.5,113.4,394.5,112.1z M388.6,96.7c0,0,0.1,0.1,0.1,0.1h0.2L388.6,96.7z"/>
		<path class="st2" d="M427.3,100.4c-1.6,2.5-3.2,4.9-4.6,7.2c-1.5,2.3-3,4.7-4.6,7.2c-0.2,0.3-0.6,0.3-1.1,0
			c-0.5-0.3-1.1-0.8-1.8-1.5c-0.7-0.7-1.4-1.6-2.2-2.6c-0.8-1-1.6-2.1-2.5-3.2c-0.8-1.1-1.6-2.3-2.4-3.4c-0.8-1.1-1.5-2.2-2.1-3.2
			c-0.1,1.6-0.1,3.1-0.1,4.5c0,1.4,0,2.9,0,4.3c0,1.5,0,2.9,0,4.4c0,1.5,0,2.9,0.1,4.5c0,1.2,0.1,2.6,0.1,4.1c0,1.5,0,3,0.1,4.4
			c-0.2,1-0.6,1.7-1,2.1c-0.4,0.4-0.8,0.6-1.2,0.6c-0.5,0-1-0.2-1.4-0.7c-0.4-0.5-0.7-1.1-0.8-1.9l0.4-31.7c0.1-0.7,0.5-1.2,1-1.4
			c0.5-0.3,1-0.4,1.6-0.4c0.3,0,0.6,0,1,0.1c0.4,0.1,0.7,0.2,0.9,0.2l10.3,14.2c0.9-1.2,1.7-2.3,2.3-3.3c0.6-1,1.2-2,1.8-3.1
			c0.6-1,1.2-2,1.8-3c0.6-1,1.4-2.1,2.3-3.3c0.1-0.1,0.1-0.2,0.3-0.4c0.1-0.2,0.2-0.4,0.3-0.5c0.3-0.5,0.6-0.9,0.9-1.1
			c0.3-0.3,0.7-0.4,1.2-0.4c0.7,0,1.3,0.3,1.9,0.8c0.6,0.5,1,1.2,1.2,2.1l2,30.6c0,0.6-0.1,1.3-0.4,1.9c-0.3,0.6-0.7,0.9-1.2,0.9
			c-0.4,0-0.8-0.2-1.2-0.5c-0.4-0.4-0.9-1-1.3-1.8L427.3,100.4z"/>
		<path class="st2" d="M435.9,106.4l0.6-2.3c0.5-1.8,1.2-3.5,2.1-5c0.9-1.5,1.8-2.8,2.9-3.8c1.1-1.1,2.1-1.9,3.3-2.5
			c1.1-0.6,2.3-0.9,3.4-0.9c1,0,2,0.3,3,0.8c0.9,0.5,1.8,1.4,2.5,2.6c0.7,1.2,1.3,2.7,1.7,4.5c0.4,1.8,0.7,4,0.7,6.6l-16.6,2.3
			c-0.1,0.5-0.1,1-0.1,1.5c0,0.5,0,1,0,1.5c0,1.7,0.2,3.2,0.7,4.6c0.5,1.4,1,2.6,1.8,3.6c0.7,1,1.6,1.8,2.6,2.4c1,0.6,2,0.9,3.1,0.9
			c1.2,0,2.4-0.4,3.6-1.3c1.2-0.9,2.3-2.2,3.4-4.1c0.1-0.7,0.4-1.1,0.8-1.4c0.4-0.2,0.8-0.3,1.2-0.2c0.4,0.1,0.8,0.4,1.1,0.9
			c0.3,0.5,0.5,1.1,0.5,1.9c0,0.4-0.1,0.9-0.2,1.4c-0.2,0.5-0.5,1-0.9,1.6c-1.7,2.2-3.4,3.8-5,4.7c-1.6,0.9-3.2,1.4-4.7,1.4
			c-1.7,0-3.2-0.5-4.7-1.5c-1.4-1-2.7-2.3-3.7-3.9c-1-1.6-1.8-3.4-2.4-5.3s-0.9-3.8-0.9-5.6c0-1.1,0-2.1,0.1-3.1l0.1-1.1
			L435.9,106.4z M452.3,102.1c0-0.2,0-0.4,0-0.7c0-1.5-0.4-2.6-1.1-3.3c-0.7-0.7-1.6-1.1-2.7-1.1c-1.4,0-2.9,0.6-4.3,1.7
			c-1.5,1.1-2.6,2.9-3.5,5.3L452.3,102.1z"/>
		<g>
			<path class="st2" d="M474.8,80.8c0.1-0.5,0.2-0.9,0.5-1.2c0.2-0.3,0.5-0.5,0.8-0.6c0.3-0.1,0.6-0.2,0.9-0.2c0.3,0,0.6,0,0.9,0.1
				c0.1,0,0.3,0,0.6,0c0.3,0,0.5,0,0.5,0l0.2,47.9c-0.6,1.3-1.3,2-2.2,2c-0.4,0-0.8-0.2-1.2-0.5c-0.4-0.4-0.7-0.8-1-1.3V80.8z"/>
		</g>
		<g>
			<path class="st2" d="M491.3,102.3c-0.1,1.4-0.1,2.9-0.1,4.4c0,1.5,0,2.9,0,4c0,1.4,0,2.8,0,4.2c0,1.4,0,2.8,0.1,4.4
				c0,1,0.1,2.1,0.1,3.4c0,1.3,0,2.6,0,3.8c-0.2,1.1-0.6,1.8-1.1,2.3c-0.5,0.5-1,0.7-1.5,0.7c-0.5,0-1-0.2-1.4-0.6
				c-0.4-0.4-0.6-1-0.7-1.8l0.4-31.7c0.2-0.7,0.5-1.2,1-1.4c0.5-0.3,1.1-0.4,1.7-0.4c0.3,0,0.7,0,1.1,0.1c0.4,0.1,0.7,0.2,0.9,0.2
				l12.5,23.6c0-4.1-0.1-8.2-0.1-12.2c0-4.1-0.1-8.1-0.1-12.1c0.4-0.4,0.8-0.7,1.2-0.8s0.9-0.2,1.3,0c0.4,0.2,0.8,0.5,1.1,1
				c0.3,0.5,0.6,1.2,0.7,2.2c0,2.5,0,4.8,0,6.9c0,2.1,0,4,0,5.7c0,3.7,0,6.6,0,8.7c0,2.1,0,3.7,0.1,4.8v2c0,0.3,0,0.6,0,0.8
				s0,0.5,0,0.7c0,0.2-0.1,0.5-0.1,0.7c0,0.3-0.1,0.6-0.1,1c-0.6,0.9-1.2,1.4-1.8,1.4c-0.6,0-1.1-0.3-1.6-0.9c-0.5-0.6-1-1.3-1.4-2
				L491.3,102.3z"/>
		</g>
		<g>
			<path class="st2" d="M516.2,115.4c-0.1-4.6-0.2-8.7-0.2-12.2c0-3.5,0-6.5,0-9.1c0-2,0-3.8,0-5.2c0-1.5,0-2.7,0-3.7
				c0-1,0-1.8,0.1-2.3c0-0.6,0-0.9,0-1.1v-0.2c0.2-0.9,0.5-1.6,0.9-2c0.4-0.4,0.8-0.6,1.2-0.6c0.5,0,0.9,0.2,1.3,0.7
				c0.4,0.4,0.6,1.1,0.8,1.8c0,0.7,0,1.6,0,2.7c0,1.1,0,2.4,0,3.9c0,1.4,0,3,0,4.7c0,1.7,0,3.4,0,5.1c0,1.7,0,3.4,0,5.1
				c0,1.7,0,3.3,0,4.8c0,1.5,0,2.9,0,4.1c0,1.2,0,2.2,0,3c-0.2,0.9-0.5,1.5-0.7,1.8c-0.3,0.4-0.6,0.5-1,0.5c-0.5,0-1.1-0.3-1.8-0.8
				L516.2,115.4z M516.1,125.9c0-1,0.3-1.7,0.8-2.1c0.5-0.4,1.1-0.6,1.9-0.6c0.7,0.2,1.1,0.5,1.4,1c0.3,0.5,0.4,1,0.4,1.5
				c0,0.4-0.1,0.8-0.2,1.1c-0.2,0.4-0.3,0.7-0.6,1c-0.2,0.3-0.5,0.5-0.8,0.6c-0.3,0.1-0.6,0.2-0.9,0.1c-0.8,0-1.3-0.3-1.6-0.8
				C516.2,127.3,516.1,126.6,516.1,125.9z"/>
		</g>
	</g>
</g>
</svg>
